Prairie Strips Impact on Transport of Antibiotic Resistance Indicators in Poultry Manure
…
df <- readRDS("Data/metawithbiomark.RDS") 

standard <- df %>%
  filter(sample_type %in% "standard")

PC_Standards_no_NA <- readRDS("Data/ampliconlengths.RDS")

PC_Standards_no_NA

# A tibble: 46 x 3
   gene          Assay       amp_len
   <chr>         <chr>       <chr>  
 1 aadA9_F       aadA9       251    
 2 ant6-ia_F     ant6-ia     313    
 3 ant6-ib_F     ant6-ib     251    
 4 aph(3'')-ia_F aph(3'')-ia 301    
 5 erm(35)_F     erm(35)     251    
 6 erm(B)_F      erm(B)      251    
 7 erm(C)_F      erm(C)      251    
 8 erm(F)_F      erm(F)      251    
 9 erm(Q)_F      erm(Q)      287    
10 ermA/ermTR_F  ermA/ermTR  251    
# … with 36 more rows
…
write_csv(LODtable, file = "Data/standardcurves.csv")

Calculating counts in an environmental sample

counts

# A tibble: 425 x 5
   Assay           rConc Value amp_len counts
   <chr>           <chr> <dbl> <chr>    <dbl>
 1 tetbP           1e-07  24.7 251       2.44
 2 sul1 NEW        1e-07  21.8 251       2.44
 3 IS6100          1e-07  21.4 251       2.44
 4 erm(C)          1e-07  26.4 251       2.44
 5 16S_Eub_338_518 1e-07  24.7 257       2.38
 6 tetbP           1e-06  22.1 251      24.4 
 7 tetbP           1e-06  20.7 251      24.4 
 8 tetbP           1e-06  20.5 251      24.4 
 9 sul1 NEW        1e-06  22.7 251      24.4 
10 sul1 NEW        1e-06  20.8 251      24.4 
# … with 415 more rows

Environment Ct values

water <- df %>%
  filter(sample_type %in% "water", !Sample_Name == "Supply_Water")
water

# A tibble: 6,336 x 21
   Sample_Name Sample_Type Assay  Assay_Type ID     rConc Value `Calibrated rCo…
   <chr>       <chr>       <chr>  <chr>      <chr>  <chr> <chr> <chr>           
 1 P2_5        Unknown     16S_E… Test       S06-A… 1     18.3… 4.9938279547795…
 2 P2_5        Unknown     16S_E… Test       S06-A… 1     18.3… 5.0738800340691…
 3 P2_5        Unknown     16S_E… Test       S06-A… 1     17.7… 7.6293726452979…
 4 P2_5        Unknown     sul1 … Test       S06-A… 1     999   -1              
 5 P2_5        Unknown     sul1 … Test       S06-A… 1     999   -1              
 6 P2_5        Unknown     sul1 … Test       S06-A… 1     999   -1              
 7 P2_5        Unknown     erm(3… Test       S06-A… 1     999   -1              
 8 P2_5        Unknown     erm(3… Test       S06-A… 1     999   -1              
 9 P2_5        Unknown     erm(3… Test       S06-A… 1     999   -1              
10 P2_5        Unknown     tetW   Test       S06-A… 1     999   -1              
# … with 6,326 more rows, and 13 more variables: Quality <chr>, Call <chr>,
#   Threshold <chr>, In Range <chr>, Out Range <chr>, Peak Ratio <chr>,
#   soil_type <chr>, plot <chr>, treatment <chr>, block <chr>,
#   sample_day <fct>, sample_number <chr>, sample_type <chr>

soil <- df %>%
  filter(sample_type %in% "soil")
soil

# A tibble: 10,944 x 21
   Sample_Name Sample_Type Assay  Assay_Type ID     rConc Value `Calibrated rCo…
   <chr>       <chr>       <chr>  <chr>      <chr>  <chr> <chr> <chr>           
 1 C_1_TB_1    Unknown     16S_E… Test       S95-A… 1     15.1… 0.0001944385882…
 2 C_1_TB_1    Unknown     16S_E… Test       S95-A… 1     14.8… 0.0002366823806…
 3 C_1_TB_1    Unknown     16S_E… Test       S95-A… 1     14.9… 0.0002276031810…
 4 C_1_TB_1    Unknown     sul1 … Test       S95-A… 1     999   -1              
 5 C_1_TB_1    Unknown     sul1 … Test       S95-A… 1     999   -1              
 6 C_1_TB_1    Unknown     sul1 … Test       S95-A… 1     999   -1              
 7 C_1_TB_1    Unknown     erm(3… Test       S95-A… 1     999   -1              
 8 C_1_TB_1    Unknown     erm(3… Test       S95-A… 1     999   -1              
 9 C_1_TB_1    Unknown     erm(3… Test       S95-A… 1     999   -1              
10 C_1_TB_1    Unknown     tetW   Test       S95-A… 1     999   -1              
# … with 10,934 more rows, and 13 more variables: Quality <chr>, Call <chr>,
#   Threshold <chr>, In Range <chr>, Out Range <chr>, Peak Ratio <chr>,
#   soil_type <chr>, plot <chr>, treatment <chr>, block <chr>,
#   sample_day <fct>, sample_number <chr>, sample_type <chr>
…
ggsave(filename = "Figures/SupFig4.png", plot = last_plot(), device = "png", width = 6.5, height = 7.5, units = "in", dpi = 350)

Supp Figure S5

SixS <- norm %>%
  filter(Assay == "16S_Eub_338_518") 
SixS

# A tibble: 198 x 8
   plot  sample_number   rep treatment Assay       gene_class counts Value      
   <chr> <chr>         <int> <chr>     <chr>       <chr>       <dbl> <chr>      
 1 2     5                 1 WCS       16S_Eub_33… 16S          844. 18.3926544…
 2 2     5                 2 WCS       16S_Eub_33… 16S          858. 18.3668106…
 3 2     5                 3 WCS       16S_Eub_33… 16S         1308. 17.7039409…
 4 2     3                 1 WCS       16S_Eub_33… 16S          715. 18.6550587…
 5 2     3                 2 WCS       16S_Eub_33… 16S          733. 18.6149361…
 6 2     3                 3 WCS       16S_Eub_33… 16S         1173. 17.8757951…
 7 2     1                 1 WCS       16S_Eub_33… 16S         3359. 16.2208645…
 8 2     1                 2 WCS       16S_Eub_33… 16S         3564. 16.1278807…
 9 2     1                 3 WCS       16S_Eub_33… 16S         4399. 15.7965356…
10 1     5                 1 WCS       16S_Eub_33… 16S           NA  <NA>       
# … with 188 more rows
SixS$treatment = factor(SixS$treatment, 
                             levels = c('WCS', 'WCSM', 'WCM'))
levels(SixS$treatment) <- list("CS"="WCS", "CSM"="WCSM", "CM"="WCM")
SixS$sample_number <- as.factor(SixS$sample_number)
levels(SixS$sample_number) <- list("2.5" = "1", "7.5" = "2", "12.5" = "3", "17.5" = "4", "22.5" = "5", "27.5" = "6")

my_comparisons <- list( c("WCS", "WCSM"), c("WCS", "WCM"), c("WCM", "WCSM"))

sig <- SixS %>%
  filter(!rep %in% c(4,5,6)) %>%
  droplevels()

sig

# A tibble: 162 x 8
   plot  sample_number   rep treatment Assay       gene_class counts Value      
   <chr> <fct>         <int> <fct>     <chr>       <chr>       <dbl> <chr>      
 1 2     22.5              1 CS        16S_Eub_33… 16S          844. 18.3926544…
 2 2     22.5              2 CS        16S_Eub_33… 16S          858. 18.3668106…
 3 2     22.5              3 CS        16S_Eub_33… 16S         1308. 17.7039409…
 4 2     12.5              1 CS        16S_Eub_33… 16S          715. 18.6550587…
 5 2     12.5              2 CS        16S_Eub_33… 16S          733. 18.6149361…
 6 2     12.5              3 CS        16S_Eub_33… 16S         1173. 17.8757951…
 7 2     2.5               1 CS        16S_Eub_33… 16S         3359. 16.2208645…
 8 2     2.5               2 CS        16S_Eub_33… 16S         3564. 16.1278807…
 9 2     2.5               3 CS        16S_Eub_33… 16S         4399. 15.7965356…
10 1     22.5              1 CS        16S_Eub_33… 16S           NA  <NA>       
# … with 152 more rows
…
