Prairie Strips Impact on Transport of Antibiotic Resistance Indicators in Poultry Litter - Water Flow
…
ggsave(filename = "Figures/SupFig4.png", plot = last_plot(), device = "png", width = 6.5, height = 7.5, units = "in", dpi = 350)

Supp Figure S5

norm <- readRDS(file = "Data/norm.RDS") # Load norm data from ARGs.qmd

SixS <- norm %>%
  filter(Assay == "16S_Eub_338_518") 
SixS

# A tibble: 198 x 8
   plot  sample_number   rep treatment Assay       gene_class counts Value      
   <chr> <chr>         <int> <chr>     <chr>       <chr>       <dbl> <chr>      
 1 2     5                 1 WCS       16S_Eub_33… 16S          844. 18.3926544…
 2 2     5                 2 WCS       16S_Eub_33… 16S          858. 18.3668106…
 3 2     5                 3 WCS       16S_Eub_33… 16S         1308. 17.7039409…
 4 2     3                 1 WCS       16S_Eub_33… 16S          715. 18.6550587…
 5 2     3                 2 WCS       16S_Eub_33… 16S          733. 18.6149361…
 6 2     3                 3 WCS       16S_Eub_33… 16S         1173. 17.8757951…
 7 2     1                 1 WCS       16S_Eub_33… 16S         3359. 16.2208645…
 8 2     1                 2 WCS       16S_Eub_33… 16S         3564. 16.1278807…
 9 2     1                 3 WCS       16S_Eub_33… 16S         4399. 15.7965356…
10 1     5                 1 WCS       16S_Eub_33… 16S           NA  <NA>       
# … with 188 more rows
SixS$treatment = factor(SixS$treatment, 
                             levels = c('WCS', 'WCSM', 'WCM'))
levels(SixS$treatment) <- list("CS"="WCS", "CSM"="WCSM", "CM"="WCM")
SixS$sample_number <- as.factor(SixS$sample_number)
levels(SixS$sample_number) <- list("2.5" = "1", "7.5" = "2", "12.5" = "3", "17.5" = "4", "22.5" = "5", "27.5" = "6")

my_comparisons <- list( c("WCS", "WCSM"), c("WCS", "WCM"), c("WCM", "WCSM"))

sig <- SixS %>%
  filter(!rep %in% c(4,5,6)) %>%
  droplevels()

sig

# A tibble: 162 x 8
   plot  sample_number   rep treatment Assay       gene_class counts Value      
   <chr> <fct>         <int> <fct>     <chr>       <chr>       <dbl> <chr>      
 1 2     22.5              1 CS        16S_Eub_33… 16S          844. 18.3926544…
 2 2     22.5              2 CS        16S_Eub_33… 16S          858. 18.3668106…
 3 2     22.5              3 CS        16S_Eub_33… 16S         1308. 17.7039409…
 4 2     12.5              1 CS        16S_Eub_33… 16S          715. 18.6550587…
 5 2     12.5              2 CS        16S_Eub_33… 16S          733. 18.6149361…
 6 2     12.5              3 CS        16S_Eub_33… 16S         1173. 17.8757951…
 7 2     2.5               1 CS        16S_Eub_33… 16S         3359. 16.2208645…
 8 2     2.5               2 CS        16S_Eub_33… 16S         3564. 16.1278807…
 9 2     2.5               3 CS        16S_Eub_33… 16S         4399. 15.7965356…
10 1     22.5              1 CS        16S_Eub_33… 16S           NA  <NA>       
# … with 152 more rows
…
